(module EG1213 (layer F.Cu) (tedit 5E162B36)
  (fp_text reference REF** (at 7.5692 -2.0828) (layer F.SilkS)
    (effects (font (size 1 1) (thickness 0.15)))
  )
  (fp_text value EG1213 (at 0 -2.794) (layer F.Fab)
    (effects (font (size 1 1) (thickness 0.15)))
  )
  (fp_line (start -5 -1.9) (end 5 -1.9) (layer F.SilkS) (width 0.15))
  (fp_line (start 5 -1.9) (end 5 1.9) (layer F.SilkS) (width 0.15))
  (fp_line (start 5 1.9) (end -5 1.9) (layer F.SilkS) (width 0.15))
  (fp_line (start -5 1.9) (end -5 -1.9) (layer F.SilkS) (width 0.15))
  (fp_line (start -2.5 1.9) (end -2.5 6.9) (layer F.Fab) (width 0.15))
  (fp_line (start -2.5 6.9) (end 2.5 6.9) (layer F.Fab) (width 0.15))
  (fp_line (start 2.5 6.9) (end 2.5 1.9) (layer F.Fab) (width 0.15))
  (pad 1 thru_hole circle (at -2 0) (size 1.524 1.524) (drill 0.762) (layers *.Cu *.Mask))
  (pad 2 thru_hole circle (at 0 0) (size 1.524 1.524) (drill 0.762) (layers *.Cu *.Mask))
  (pad 3 thru_hole circle (at 2 0) (size 1.524 1.524) (drill 0.762) (layers *.Cu *.Mask))
  (pad S thru_hole circle (at -4.85 0) (size 1.4 1.4) (drill 1.4) (layers *.Cu *.Mask))
  (pad S thru_hole circle (at 4.85 0) (size 1.4 1.4) (drill 1.4) (layers *.Cu *.Mask))
)
